{
  "title": "Courses",
  "model": "Courses",
  "searchExpression":"indexof(name, '${text}') ge 0 or indexof(displayCode, '${text}') ge 0 or indexof(department/abbreviation, '${text}') ge 0 or indexof(department/name, '${text}') ge 0 or indexof(courseArea/name, '${text}') ge 0 or indexof(courseCategory/name, '${text}') ge 0)",
  "columns": [
    {
      "name":"id",
      "property": "id",
      "formatter": "ActionLinkFormatter",
      "actions" : [
        {
          "title": "Courses.Preview",
          "href": "#/courses/${id}/"
        }

      ]

    },
    {
      "name":"displayCode",
      "property": "displayCode",
      "title":"Courses.DisplayCode"
    },
    {
      "name":"name",
      "property": "name",
      "title":"Courses.name"
    },
    {
      "name":"department/abbreviation",
      "property": "departmentName",
      "title":"Courses.Department"
    },
    {
      "name":"courseArea/name",
      "property": "courseArea",
      "title":"Courses.courseArea"
    },
    {
      "name":"courseSector/name",
      "property": "courseSector",
      "title":"Courses.courseSector"
    },
    {
      "name":"courseCategory/name",
      "property": "courseCategory",
      "title":"Courses.courseCategory"
    }
  ]
}
