{
  "model": "CourseClasses",
  "title": "CourseClasses",
  "columns": [
    {
      "name":"id",
      "property": "id",
      "formatter": "ActionLinkFormatter",
      "actions" : [
        {
          "title": "Labels.PreviewLink",
          "href": "#/classes/${id}/preview/general"
        }
      ]
    },
    {
      "name":"course/displayCode",
      "property":"displayCode",
      "title":"Classes.DisplayCode"
    },
    {
      "name": "course/name",
      "property": "title",
      "title": "Classes.classTitle"
    },
    {
      "name": "year/alternateName",
      "property": "year",
      "title": "Classes.Year"
    },
    {
      "name": "period/name",
      "property": "period",
      "title": "Classes.Period"
    },
    {
      "name": "numberOfStudents",
      "property": "numberOfStudents",
      "title": "Classes.NumberOfStudents"
    },
    {
      "name": "maxNumberOfStudents",
      "property": "maxNumberOfStudents",
      "title": "Classes.MaxNumberOfStudents"
    },
    {
      "name": "weekHours",
      "property": "weekHours",
      "title": "Classes.WeekHours"
    },
    {
      "name": "totalHours",
      "property": "totalHours",
      "title": "Classes.TotalHours"
    }
  ]
}
